
{
  "header": {
    "reportVersion": 1,
    "event": "Allocation failed - JavaScript heap out of memory",
    "trigger": "FatalError",
    "filename": "report.20210225.210624.9740.0.001.json",
    "dumpEventTime": "2021-02-25T21:06:24Z",
    "dumpEventTimeStamp": "1614276384749",
    "processId": 9740,
    "cwd": "C:\\Users\\User\\Documents\\web\\Angular\\smart home 2.0\\smart-home-app2",
    "commandLine": [
      "C:\\Program Files\\nodejs\\node.exe",
      "C:\\Users\\User\\Documents\\web\\Angular\\smart home 2.0\\smart-home-app2\\node_modules\\@ngtools\\webpack\\src\\type_checker_worker.js",
      "9d93e901-158a-4cf9-ba1b-2f0582ffcfeb"
    ],
    "nodejsVersion": "v12.14.0",
    "wordSize": 64,
    "arch": "x64",
    "platform": "win32",
    "componentVersions": {
      "node": "12.14.0",
      "v8": "7.7.299.13-node.16",
      "uv": "1.33.1",
      "zlib": "1.2.11",
      "brotli": "1.0.7",
      "ares": "1.15.0",
      "modules": "72",
      "nghttp2": "1.39.2",
      "napi": "5",
      "llhttp": "1.1.4",
      "http_parser": "2.8.0",
      "openssl": "1.1.1d",
      "cldr": "35.1",
      "icu": "64.2",
      "tz": "2019c",
      "unicode": "12.1"
    },
    "release": {
      "name": "node",
      "lts": "Erbium",
      "headersUrl": "https://nodejs.org/download/release/v12.14.0/node-v12.14.0-headers.tar.gz",
      "sourceUrl": "https://nodejs.org/download/release/v12.14.0/node-v12.14.0.tar.gz",
      "libUrl": "https://nodejs.org/download/release/v12.14.0/win-x64/node.lib"
    },
    "osName": "Windows_NT",
    "osRelease": "10.0.19041",
    "osVersion": "Windows 10 Home",
    "osMachine": "x86_64",
    "cpus": [
      {
        "model": "Intel(R) Core(TM) i7-8550U CPU @ 1.80GHz",
        "speed": 1992,
        "user": 6907046,
        "nice": 0,
        "sys": 10598796,
        "idle": 71355468,
        "irq": 1614671
      },
      {
        "model": "Intel(R) Core(TM) i7-8550U CPU @ 1.80GHz",
        "speed": 1992,
        "user": 4950218,
        "nice": 0,
        "sys": 2930234,
        "idle": 80980562,
        "irq": 179625
      },
      {
        "model": "Intel(R) Core(TM) i7-8550U CPU @ 1.80GHz",
        "speed": 1992,
        "user": 8804062,
        "nice": 0,
        "sys": 7078703,
        "idle": 72978218,
        "irq": 271953
      },
      {
        "model": "Intel(R) Core(TM) i7-8550U CPU @ 1.80GHz",
        "speed": 1992,
        "user": 6633937,
        "nice": 0,
        "sys": 3180406,
        "idle": 79046687,
        "irq": 169625
      },
      {
        "model": "Intel(R) Core(TM) i7-8550U CPU @ 1.80GHz",
        "speed": 1992,
        "user": 8201328,
        "nice": 0,
        "sys": 9999859,
        "idle": 70659828,
        "irq": 529140
      },
      {
        "model": "Intel(R) Core(TM) i7-8550U CPU @ 1.80GHz",
        "speed": 1992,
        "user": 4627578,
        "nice": 0,
        "sys": 2731625,
        "idle": 81501812,
        "irq": 135421
      },
      {
        "model": "Intel(R) Core(TM) i7-8550U CPU @ 1.80GHz",
        "speed": 1992,
        "user": 6977796,
        "nice": 0,
        "sys": 5875109,
        "idle": 76008109,
        "irq": 749046
      },
      {
        "model": "Intel(R) Core(TM) i7-8550U CPU @ 1.80GHz",
        "speed": 1992,
        "user": 7126156,
        "nice": 0,
        "sys": 4791562,
        "idle": 76943296,
        "irq": 335875
      }
    ],
    "networkInterfaces": [
      {
        "name": "Беспроводная сеть",
        "internal": false,
        "mac": "d0:ab:d5:b8:01:f0",
        "address": "2a00:1370:8120:e71e:9df8:8cb9:b450:7d37",
        "netmask": "ffff:ffff:ffff:ffff::",
        "family": "IPv6",
        "scopeid": 0
      },
      {
        "name": "Беспроводная сеть",
        "internal": false,
        "mac": "d0:ab:d5:b8:01:f0",
        "address": "2a00:1370:8120:e71e:bd42:533b:7ba2:a01d",
        "netmask": "ffff:ffff:ffff:ffff:ffff:ffff:ffff:ffff",
        "family": "IPv6",
        "scopeid": 0
      },
      {
        "name": "Беспроводная сеть",
        "internal": false,
        "mac": "d0:ab:d5:b8:01:f0",
        "address": "2a00:1370:8120:e71e:c01e:6172:f314:d096",
        "netmask": "ffff:ffff:ffff:ffff:ffff:ffff:ffff:ffff",
        "family": "IPv6",
        "scopeid": 0
      },
      {
        "name": "Беспроводная сеть",
        "internal": false,
        "mac": "d0:ab:d5:b8:01:f0",
        "address": "fe80::9df8:8cb9:b450:7d37",
        "netmask": "ffff:ffff:ffff:ffff::",
        "family": "IPv6",
        "scopeid": 13
      },
      {
        "name": "Беспроводная сеть",
        "internal": false,
        "mac": "d0:ab:d5:b8:01:f0",
        "address": "192.168.1.68",
        "netmask": "255.255.255.0",
        "family": "IPv4"
      },
      {
        "name": "Loopback Pseudo-Interface 1",
        "internal": true,
        "mac": "00:00:00:00:00:00",
        "address": "::1",
        "netmask": "ffff:ffff:ffff:ffff:ffff:ffff:ffff:ffff",
        "family": "IPv6",
        "scopeid": 0
      },
      {
        "name": "Loopback Pseudo-Interface 1",
        "internal": true,
        "mac": "00:00:00:00:00:00",
        "address": "127.0.0.1",
        "netmask": "255.0.0.0",
        "family": "IPv4"
      }
    ],
    "host": "DESKTOP-7S8U3BE"
  },
  "javascriptStack": {
    "message": "No stack.",
    "stack": [
      "Unavailable."
    ]
  },
  "nativeStack": [
    {
      "pc": "0x00007ff69b8d1729",
      "symbol": "std::basic_ostream<char,std::char_traits<char> >::operator<<+10873"
    },
    {
      "pc": "0x00007ff69b8d5b4c",
      "symbol": "std::basic_ostream<char,std::char_traits<char> >::operator<<+28316"
    },
    {
      "pc": "0x00007ff69b8d4b08",
      "symbol": "std::basic_ostream<char,std::char_traits<char> >::operator<<+24152"
    },
    {
      "pc": "0x00007ff69b9c369b",
      "symbol": "v8::base::CPU::has_sse+37723"
    },
    {
      "pc": "0x00007ff69c1c82de",
      "symbol": "v8::Isolate::ReportExternalAllocationLimitReached+94"
    },
    {
      "pc": "0x00007ff69c1b0321",
      "symbol": "v8::SharedArrayBuffer::Externalize+833"
    },
    {
      "pc": "0x00007ff69c07dbec",
      "symbol": "v8::internal::Heap::EphemeronKeyWriteBarrierFromCode+1436"
    },
    {
      "pc": "0x00007ff69c088f90",
      "symbol": "v8::internal::Heap::ProtectUnprotectedMemoryChunks+1312"
    },
    {
      "pc": "0x00007ff69c085ac4",
      "symbol": "v8::internal::Heap::PageFlagsAreConsistent+3204"
    },
    {
      "pc": "0x00007ff69c07b353",
      "symbol": "v8::internal::Heap::CollectGarbage+1283"
    },
    {
      "pc": "0x00007ff69c079b24",
      "symbol": "v8::internal::Heap::AddRetainedMap+2356"
    },
    {
      "pc": "0x00007ff69c09adf5",
      "symbol": "v8::internal::Factory::NewFillerObject+53"
    },
    {
      "pc": "0x00007ff69be06e19",
      "symbol": "v8::internal::interpreter::JumpTableTargetOffsets::iterator::operator=+4057"
    },
    {
      "pc": "0x00007ff69c5f404d",
      "symbol": "v8::internal::SetupIsolateDelegate::SetupHeap+567949"
    },
    {
      "pc": "0x00007ff69c57530b",
      "symbol": "v8::internal::SetupIsolateDelegate::SetupHeap+48459"
    },
    {
      "pc": "0x000002d027c1032f",
      "symbol": ""
    }
  ],
  "javascriptHeap": {
    "totalMemory": 2169573376,
    "totalCommittedMemory": 2169573376,
    "usedMemory": 2040380824,
    "availableMemory": 68655856,
    "memoryLimit": 2197815296,
    "heapSpaces": {
      "read_only_space": {
        "memorySize": 262144,
        "committedMemory": 262144,
        "capacity": 261872,
        "used": 32296,
        "available": 229576
      },
      "new_space": {
        "memorySize": 33554432,
        "committedMemory": 33554432,
        "capacity": 16759808,
        "used": 290936,
        "available": 16468872
      },
      "old_space": {
        "memorySize": 1872605184,
        "committedMemory": 1872605184,
        "capacity": 1811165536,
        "used": 1804209856,
        "available": 6955680
      },
      "code_space": {
        "memorySize": 17203200,
        "committedMemory": 17203200,
        "capacity": 14906304,
        "used": 14906304,
        "available": 0
      },
      "map_space": {
        "memorySize": 25432064,
        "committedMemory": 25432064,
        "capacity": 1096880,
        "used": 1096880,
        "available": 0
      },
      "large_object_space": {
        "memorySize": 220467200,
        "committedMemory": 220467200,
        "capacity": 219841000,
        "used": 219841000,
        "available": 0
      },
      "code_large_object_space": {
        "memorySize": 49152,
        "committedMemory": 49152,
        "capacity": 3552,
        "used": 3552,
        "available": 0
      },
      "new_large_object_space": {
        "memorySize": 0,
        "committedMemory": 0,
        "capacity": 16759808,
        "used": 0,
        "available": 16759808
      }
    }
  },
  "resourceUsage": {
    "userCpuSeconds": 996.828,
    "kernelCpuSeconds": 155.765,
    "cpuConsumptionPercent": 39.3645,
    "maxRss": 2276917248,
    "pageFaults": {
      "IORequired": 2670257,
      "IONotRequired": 0
    },
    "fsActivity": {
      "reads": 208037,
      "writes": 6
    }
  },
  "libuv": [
  ],
  "environmentVariables": {
    "ACTEL_FOR_ALTIUM_OVERRIDE": " ",
    "ALLUSERSPROFILE": "C:\\ProgramData",
    "ALTERA_FOR_ALTIUM_OVERRIDE": " ",
    "APPDATA": "C:\\Users\\User\\AppData\\Roaming",
    "BROWSERSLIST_IGNORE_OLD_DATA": "1",
    "CommonProgramFiles": "C:\\Program Files\\Common Files",
    "CommonProgramFiles(x86)": "C:\\Program Files (x86)\\Common Files",
    "CommonProgramW6432": "C:\\Program Files\\Common Files",
    "COMPUTERNAME": "DESKTOP-7S8U3BE",
    "ComSpec": "C:\\WINDOWS\\system32\\cmd.exe",
    "dp0": "C:\\Users\\User\\Documents\\web\\Angular\\smart home 2.0\\smart-home-app2\\node_modules\\.bin\\",
    "DriverData": "C:\\Windows\\System32\\Drivers\\DriverData",
    "HOME": "C:\\Users\\User",
    "HOMEDRIVE": "C:",
    "HOMEPATH": "\\Users\\User",
    "IDEA_INITIAL_DIRECTORY": "C:\\Users\\User\\Desktop",
    "INIT_CWD": "C:\\Users\\User\\Documents\\web\\Angular\\smart home 2.0\\smart-home-app2",
    "LOCALAPPDATA": "C:\\Users\\User\\AppData\\Local",
    "LOGONSERVER": "\\\\DESKTOP-7S8U3BE",
    "NODE": "C:\\Program Files\\nodejs\\node.exe",
    "npm_config_access": "",
    "npm_config_allow_same_version": "",
    "npm_config_also": "",
    "npm_config_always_auth": "",
    "npm_config_argv": "{\"remain\":[],\"cooked\":[\"run\",\"start\",\"--scripts-prepend-node-path\",\"auto\"],\"original\":[\"run\",\"start\",\"--scripts-prepend-node-path=auto\"]}",
    "npm_config_audit": "true",
    "npm_config_audit_level": "low",
    "npm_config_auth_type": "legacy",
    "npm_config_before": "",
    "npm_config_bin_links": "true",
    "npm_config_browser": "",
    "npm_config_ca": "",
    "npm_config_cache": "C:\\Users\\User\\AppData\\Roaming\\npm-cache",
    "npm_config_cache_lock_retries": "10",
    "npm_config_cache_lock_stale": "60000",
    "npm_config_cache_lock_wait": "10000",
    "npm_config_cache_max": "Infinity",
    "npm_config_cache_min": "10",
    "npm_config_cafile": "",
    "npm_config_cert": "",
    "npm_config_cidr": "",
    "npm_config_color": "true",
    "npm_config_commit_hooks": "true",
    "npm_config_depth": "Infinity",
    "npm_config_description": "true",
    "npm_config_dev": "",
    "npm_config_dry_run": "",
    "npm_config_editor": "notepad.exe",
    "npm_config_engine_strict": "",
    "npm_config_fetch_retries": "2",
    "npm_config_fetch_retry_factor": "10",
    "npm_config_fetch_retry_maxtimeout": "60000",
    "npm_config_fetch_retry_mintimeout": "10000",
    "npm_config_force": "",
    "npm_config_format_package_lock": "true",
    "npm_config_fund": "true",
    "npm_config_git": "git",
    "npm_config_git_tag_version": "true",
    "npm_config_global": "",
    "npm_config_globalconfig": "C:\\Users\\User\\AppData\\Roaming\\npm\\etc\\npmrc",
    "npm_config_globalignorefile": "C:\\Users\\User\\AppData\\Roaming\\npm\\etc\\npmignore",
    "npm_config_global_style": "",
    "npm_config_group": "",
    "npm_config_ham_it_up": "",
    "npm_config_heading": "npm",
    "npm_config_https_proxy": "",
    "npm_config_if_present": "",
    "npm_config_ignore_prepublish": "",
    "npm_config_ignore_scripts": "",
    "npm_config_init_author_email": "",
    "npm_config_init_author_name": "",
    "npm_config_init_author_url": "",
    "npm_config_init_license": "ISC",
    "npm_config_init_module": "C:\\Users\\User\\.npm-init.js",
    "npm_config_init_version": "1.0.0",
    "npm_config_json": "",
    "npm_config_key": "",
    "npm_config_legacy_bundling": "",
    "npm_config_link": "",
    "npm_config_local_address": "",
    "npm_config_loglevel": "notice",
    "npm_config_logs_max": "10",
    "npm_config_long": "",
    "npm_config_maxsockets": "50",
    "npm_config_message": "%s",
    "npm_config_metrics_registry": "https://registry.npmjs.org/",
    "npm_config_node_gyp": "C:\\Program Files\\nodejs\\node_modules\\npm\\node_modules\\node-gyp\\bin\\node-gyp.js",
    "npm_config_node_options": "",
    "npm_config_node_version": "12.14.0",
    "npm_config_noproxy": "",
    "npm_config_offline": "",
    "npm_config_onload_script": "",
    "npm_config_only": "",
    "npm_config_optional": "true",
    "npm_config_otp": "",
    "npm_config_package_lock": "true",
    "npm_config_package_lock_only": "",
    "npm_config_parseable": "",
    "npm_config_prefer_offline": "",
    "npm_config_prefer_online": "",
    "npm_config_prefix": "C:\\Users\\User\\AppData\\Roaming\\npm",
    "npm_config_preid": "",
    "npm_config_production": "",
    "npm_config_progress": "true",
    "npm_config_proxy": "",
    "npm_config_read_only": "",
    "npm_config_rebuild_bundle": "true",
    "npm_config_registry": "https://registry.npmjs.org/",
    "npm_config_rollback": "true",
    "npm_config_save": "true",
    "npm_config_save_bundle": "",
    "npm_config_save_dev": "",
    "npm_config_save_exact": "",
    "npm_config_save_optional": "",
    "npm_config_save_prefix": "^",
    "npm_config_save_prod": "",
    "npm_config_scope": "",
    "npm_config_scripts_prepend_node_path": "auto",
    "npm_config_script_shell": "",
    "npm_config_searchexclude": "",
    "npm_config_searchlimit": "20",
    "npm_config_searchopts": "",
    "npm_config_searchstaleness": "900",
    "npm_config_send_metrics": "",
    "npm_config_shell": "C:\\WINDOWS\\system32\\cmd.exe",
    "npm_config_shrinkwrap": "true",
    "npm_config_sign_git_commit": "",
    "npm_config_sign_git_tag": "",
    "npm_config_sso_poll_frequency": "500",
    "npm_config_sso_type": "oauth",
    "npm_config_strict_ssl": "true",
    "npm_config_tag": "latest",
    "npm_config_tag_version_prefix": "v",
    "npm_config_timing": "",
    "npm_config_tmp": "C:\\Users\\User\\AppData\\Local\\Temp",
    "npm_config_umask": "0000",
    "npm_config_unicode": "",
    "npm_config_unsafe_perm": "true",
    "npm_config_update_notifier": "true",
    "npm_config_usage": "",
    "npm_config_user": "",
    "npm_config_userconfig": "C:\\Users\\User\\.npmrc",
    "npm_config_user_agent": "npm/6.13.4 node/v12.14.0 win32 x64",
    "npm_config_version": "",
    "npm_config_versions": "",
    "npm_config_viewer": "browser",
    "npm_execpath": "C:\\Program Files\\nodejs\\node_modules\\npm\\bin\\npm-cli.js",
    "npm_lifecycle_event": "start",
    "npm_lifecycle_script": "ng serve",
    "npm_node_execpath": "C:\\Program Files\\nodejs\\node.exe",
    "npm_package_dependencies_firebase": "^7.16.1",
    "npm_package_dependencies_ngrx_forms": "^6.2.0",
    "npm_package_dependencies_rxjs": "~6.5.4",
    "npm_package_dependencies_tslib": "^2.0.0",
    "npm_package_dependencies_zone_js": "~0.10.3",
    "npm_package_dependencies__angular_animations": "~10.0.0",
    "npm_package_dependencies__angular_cdk": "^10.0.0",
    "npm_package_dependencies__angular_common": "~10.0.0",
    "npm_package_dependencies__angular_compiler": "~10.0.0",
    "npm_package_dependencies__angular_core": "~10.0.0",
    "npm_package_dependencies__angular_fire": "^6.0.2",
    "npm_package_dependencies__angular_forms": "~10.0.0",
    "npm_package_dependencies__angular_material": "^10.0.0",
    "npm_package_dependencies__angular_platform_browser": "~10.0.0",
    "npm_package_dependencies__angular_platform_browser_dynamic": "~10.0.0",
    "npm_package_dependencies__angular_router": "~10.0.0",
    "npm_package_dependencies__ngrx_effects": "^9.2.0",
    "npm_package_dependencies__ngrx_entity": "^9.2.0",
    "npm_package_dependencies__ngrx_router_store": "^9.2.0",
    "npm_package_dependencies__ngrx_store": "^9.2.0",
    "npm_package_dependencies__ngrx_store_devtools": "^9.2.0",
    "npm_package_description": "This project was generated with [Angular CLI](https://github.com/angular/angular-cli) version 9.0.3.",
    "npm_package_devDependencies_codelyzer": "^5.1.2",
    "npm_package_devDependencies_eslint": "^6.8.0",
    "npm_package_devDependencies_eslint_config_prettier": "^6.11.0",
    "npm_package_devDependencies_eslint_import_resolver_typescript": "^2.0.0",
    "npm_package_devDependencies_eslint_plugin_prettier": "^3.1.3",
    "npm_package_devDependencies_husky": "^4.2.5",
    "npm_package_devDependencies_jasmine_core": "~3.5.0",
    "npm_package_devDependencies_jasmine_spec_reporter": "~5.0.0",
    "npm_package_devDependencies_jest": "^25.5.4",
    "npm_package_devDependencies_jest_preset_angular": "^8.1.3",
    "npm_package_devDependencies_lint_staged": "^10.1.7",
    "npm_package_devDependencies_prettier": "^2.0.5",
    "npm_package_devDependencies_protractor": "~7.0.0",
    "npm_package_devDependencies_ts_node": "~8.3.0",
    "npm_package_devDependencies_typescript": "~3.9.5",
    "npm_package_devDependencies__angular_cli": "~10.0.0",
    "npm_package_devDependencies__angular_compiler_cli": "~10.0.0",
    "npm_package_devDependencies__angular_devkit_build_angular": "~0.1000.0",
    "npm_package_devDependencies__angular_language_service": "~10.0.0",
    "npm_package_devDependencies__ngrx_schematics": "^9.2.0",
    "npm_package_devDependencies__typescript_eslint_eslint_plugin": "^2.31.0",
    "npm_package_devDependencies__typescript_eslint_parser": "^2.31.0",
    "npm_package_devDependencies__types_jasmine": "~3.5.0",
    "npm_package_devDependencies__types_jasminewd2": "~2.0.3",
    "npm_package_devDependencies__types_jest": "^25.2.1",
    "npm_package_devDependencies__types_node": "^12.11.1",
    "npm_package_gitHead": "d300614680ba35546f937897e206963f8954fbde",
    "npm_package_name": "smart-home-app2",
    "npm_package_private": "true",
    "npm_package_readmeFilename": "README.md",
    "npm_package_scripts_build": "ng build",
    "npm_package_scripts_build_prod": "ng build --prod",
    "npm_package_scripts_deploy": "firebase deploy",
    "npm_package_scripts_e2e": "ng e2e",
    "npm_package_scripts_lint": "eslint --fix \"src/**/*.{ts,js}\"",
    "npm_package_scripts_ng": "ng",
    "npm_package_scripts_postinstall": "ngcc --properties es2015 browser module main --first-only --create-ivy-entry-points",
    "npm_package_scripts_prettier": "prettier --write \"src/**/*{.ts,.js,.json}\"",
    "npm_package_scripts_start": "ng serve",
    "npm_package_scripts_test": "jest",
    "npm_package_version": "0.0.0",
    "NUMBER_OF_PROCESSORS": "8",
    "OneDrive": "C:\\Users\\User\\OneDrive",
    "OneDriveConsumer": "C:\\Users\\User\\OneDrive",
    "OS": "Windows_NT",
    "Path": "C:\\Program Files\\nodejs\\node_modules\\npm\\node_modules\\npm-lifecycle\\node-gyp-bin;C:\\Users\\User\\Documents\\web\\Angular\\smart home 2.0\\smart-home-app2\\node_modules\\.bin;C:\\WINDOWS\\system32;C:\\WINDOWS;C:\\WINDOWS\\System32\\Wbem;C:\\WINDOWS\\System32\\WindowsPowerShell\\v1.0\\;C:\\WINDOWS\\System32\\OpenSSH\\;C:\\Program Files\\Git\\cmd;C:\\Program Files\\nodejs\\;C:\\Users\\User\\AppData\\Local\\Programs\\Python\\Python38\\Scripts\\;C:\\Users\\User\\AppData\\Local\\Programs\\Python\\Python38\\;C:\\Users\\User\\AppData\\Local\\Microsoft\\WindowsApps;;C:\\Users\\User\\AppData\\Local\\Programs\\Microsoft VS Code\\bin;C:\\Users\\User\\AppData\\Roaming\\npm",
    "PATHEXT": ".COM;.EXE;.BAT;.CMD;.VBS;.VBE;.JSE;.WSF;.WSH;.MSC",
    "PROCESSOR_ARCHITECTURE": "AMD64",
    "PROCESSOR_IDENTIFIER": "Intel64 Family 6 Model 142 Stepping 10, GenuineIntel",
    "PROCESSOR_LEVEL": "6",
    "PROCESSOR_REVISION": "8e0a",
    "ProgramData": "C:\\ProgramData",
    "ProgramFiles": "C:\\Program Files",
    "ProgramFiles(x86)": "C:\\Program Files (x86)",
    "ProgramW6432": "C:\\Program Files",
    "PROMPT": "$P$G",
    "PSModulePath": "C:\\Program Files\\WindowsPowerShell\\Modules;C:\\WINDOWS\\system32\\WindowsPowerShell\\v1.0\\Modules",
    "PUBLIC": "C:\\Users\\Public",
    "SESSIONNAME": "Console",
    "SystemDrive": "C:",
    "SystemRoot": "C:\\WINDOWS",
    "TEMP": "C:\\Users\\User\\AppData\\Local\\Temp",
    "TMP": "C:\\Users\\User\\AppData\\Local\\Temp",
    "USERDOMAIN": "DESKTOP-7S8U3BE",
    "USERDOMAIN_ROAMINGPROFILE": "DESKTOP-7S8U3BE",
    "USERNAME": "User",
    "USERPROFILE": "C:\\Users\\User",
    "WEBPACK_DEV_SERVER": "true",
    "windir": "C:\\WINDOWS",
    "_prog": "node"
  },
  "sharedObjects": [
    "C:\\Program Files\\nodejs\\node.exe",
    "C:\\WINDOWS\\SYSTEM32\\ntdll.dll",
    "C:\\WINDOWS\\System32\\KERNEL32.DLL",
    "C:\\WINDOWS\\System32\\KERNELBASE.dll",
    "C:\\WINDOWS\\System32\\WS2_32.dll",
    "C:\\WINDOWS\\System32\\RPCRT4.dll",
    "C:\\WINDOWS\\System32\\ADVAPI32.dll",
    "C:\\WINDOWS\\SYSTEM32\\dbghelp.dll",
    "C:\\WINDOWS\\System32\\msvcrt.dll",
    "C:\\WINDOWS\\System32\\ucrtbase.dll",
    "C:\\WINDOWS\\System32\\sechost.dll",
    "C:\\WINDOWS\\System32\\USER32.dll",
    "C:\\WINDOWS\\System32\\win32u.dll",
    "C:\\WINDOWS\\System32\\GDI32.dll",
    "C:\\WINDOWS\\System32\\gdi32full.dll",
    "C:\\WINDOWS\\System32\\msvcp_win.dll",
    "C:\\WINDOWS\\System32\\PSAPI.DLL",
    "C:\\WINDOWS\\System32\\CRYPT32.dll",
    "C:\\WINDOWS\\System32\\bcrypt.dll",
    "C:\\WINDOWS\\SYSTEM32\\IPHLPAPI.DLL",
    "C:\\WINDOWS\\SYSTEM32\\USERENV.dll",
    "C:\\WINDOWS\\SYSTEM32\\WINMM.dll",
    "C:\\WINDOWS\\System32\\IMM32.DLL",
    "C:\\WINDOWS\\SYSTEM32\\powrprof.dll",
    "C:\\WINDOWS\\SYSTEM32\\UMPDC.dll",
    "C:\\WINDOWS\\SYSTEM32\\CRYPTBASE.DLL",
    "C:\\WINDOWS\\system32\\uxtheme.dll",
    "C:\\WINDOWS\\System32\\combase.dll",
    "C:\\WINDOWS\\system32\\mswsock.dll",
    "C:\\WINDOWS\\SYSTEM32\\kernel.appcore.dll",
    "C:\\WINDOWS\\System32\\bcryptprimitives.dll",
    "C:\\WINDOWS\\System32\\NSI.dll",
    "C:\\WINDOWS\\SYSTEM32\\dhcpcsvc6.DLL",
    "C:\\WINDOWS\\SYSTEM32\\dhcpcsvc.DLL",
    "C:\\WINDOWS\\SYSTEM32\\DNSAPI.dll",
    "C:\\WINDOWS\\system32\\napinsp.dll",
    "C:\\WINDOWS\\system32\\pnrpnsp.dll",
    "C:\\WINDOWS\\system32\\wshbth.dll",
    "C:\\WINDOWS\\system32\\NLAapi.dll",
    "C:\\WINDOWS\\System32\\winrnr.dll"
  ]
}